<?xml version="1.0" encoding="utf-8" standalone="yes" ?>
<sitemapindex xmlns="http://www.sitemaps.org/schemas/sitemap/0.9">
	
	<sitemap>
	   	<loc>https://gdrcoin.org/de/sitemap.xml</loc>
		
	</sitemap>
	
	<sitemap>
	   	<loc>https://gdrcoin.org/en/sitemap.xml</loc>
		
	</sitemap>
	
</sitemapindex>
